<svg width="20" height="20" viewBox="0 0 20 20" fill="none" xmlns="http://www.w3.org/2000/svg">
<path d="M3.35881 0.129213C3.97803 -0.0906304 4.6924 -0.0282867 5.261 0.303588C5.576 0.475619 5.81412 0.749369 6.06631 0.998275C6.97334 1.90484 7.87943 2.81187 8.78646 3.71796C9.01053 3.94155 9.19849 4.20546 9.31568 4.50077C9.66537 5.34171 9.44084 6.37577 8.77287 6.99499C8.27271 7.49374 7.7735 7.99342 7.27428 8.49311C7.061 8.70452 6.82943 8.89952 6.57396 9.05842C5.45459 9.7742 3.95271 9.81826 2.78881 9.17983C3.37943 10.5078 4.23678 11.6998 5.19021 12.7897C6.0199 13.7262 6.92037 14.6014 7.89537 15.3861C8.79678 16.1042 9.76803 16.7459 10.8232 17.2156C10.4613 16.5411 10.3085 15.7573 10.398 14.9965C10.4866 14.1739 10.864 13.3901 11.4415 12.7995C11.9627 12.2745 12.4882 11.7537 13.0099 11.2292C13.2396 10.9953 13.5133 10.8017 13.8199 10.6822C14.4944 10.4131 15.3016 10.4909 15.9044 10.9001C16.0807 11.0169 16.2354 11.1622 16.3826 11.3136C17.3646 12.297 18.348 13.279 19.3305 14.2625C19.7566 14.6862 20.0126 15.2834 19.9994 15.8867C20.0144 16.542 19.7074 17.1908 19.2002 17.6037C17.8001 18.6814 16.0854 19.3808 14.3093 19.4473H13.714C12.0382 19.3779 10.4187 18.8004 8.98053 17.9581C7.92303 17.3464 6.94943 16.5983 6.04053 15.7845C5.03225 14.8737 4.09193 13.8851 3.25709 12.8126C2.25162 11.5104 1.39803 10.0648 0.927871 8.47952C0.714121 7.76889 0.594121 7.03202 0.556152 6.29139V5.69421C0.623652 3.91952 1.32115 2.20577 2.3974 0.806087C2.65006 0.500463 2.98334 0.259994 3.35881 0.129213ZM3.57162 1.74734C3.31709 2.08062 3.09303 2.43687 2.89146 2.80484C2.26615 3.9453 1.95584 5.26905 2.08381 6.56842C2.39178 6.87124 2.69506 7.18014 3.00209 7.48436C3.35459 7.82655 3.81771 8.0567 4.30709 8.11248C4.9685 8.19733 5.66225 7.9653 6.13803 7.49702C6.68365 6.94999 7.23115 6.40436 7.77678 5.85733C8.04678 5.58499 8.0435 5.09749 7.76646 4.83171C6.72678 3.79202 5.68709 2.7528 4.64787 1.71265C4.36287 1.42437 3.83178 1.42859 3.57162 1.74734ZM14.0768 12.2942C13.5546 12.8192 13.0301 13.3419 12.5065 13.8654C12.1052 14.2733 11.8765 14.8414 11.8751 15.4123C11.8671 15.9894 12.0996 16.5608 12.4966 16.9775C12.8074 17.2939 13.1247 17.6042 13.436 17.9201C14.2221 17.997 15.0218 17.9131 15.7807 17.6975C16.6671 17.4429 17.4916 16.999 18.2313 16.4525C18.573 16.2003 18.5857 15.6486 18.2908 15.3556C17.2666 14.3319 16.2419 13.3086 15.2191 12.2834C14.936 11.937 14.3552 11.9473 14.0768 12.2942Z" fill="#4385F6"/>
</svg>
